// Jest Snapshot v1, https://goo.gl/fbAQLP

exports[`AttendeeListRow will render correctly in a snapshot 1`] = `
<View
  style={
    Array [
      Object {
        "height": 55,
      },
      false,
    ]
  }
>
  <View
    accessible={true}
    focusable={true}
    onClick={[Function]}
    onResponderGrant={[Function]}
    onResponderMove={[Function]}
    onResponderRelease={[Function]}
    onResponderTerminate={[Function]}
    onResponderTerminationRequest={[Function]}
    onStartShouldSetResponder={[Function]}
    style={
      Object {
        "flex": 1,
        "flexDirection": "row",
        "padding": 12,
      }
    }
  >
    <Text
      style={
        Object {
          "flex": 1,
          "fontSize": 22,
        }
      }
    >
      Test Name
    </Text>
  </View>
</View>
`;

exports[`AttendeeListRow will render with a border when not the first element in a list 1`] = `
<View
  style={
    Array [
      Object {
        "height": 55,
      },
      Object {
        "borderTopColor": "lightgrey",
        "borderTopWidth": 0.5,
      },
    ]
  }
>
  <View
    accessible={true}
    focusable={true}
    onClick={[Function]}
    onResponderGrant={[Function]}
    onResponderMove={[Function]}
    onResponderRelease={[Function]}
    onResponderTerminate={[Function]}
    onResponderTerminationRequest={[Function]}
    onStartShouldSetResponder={[Function]}
    style={
      Object {
        "flex": 1,
        "flexDirection": "row",
        "padding": 12,
      }
    }
  >
    <Text
      style={
        Object {
          "flex": 1,
          "fontSize": 22,
        }
      }
    >
      Test Name
    </Text>
  </View>
</View>
`;
